{
  "project_info": {
    "project_number": "902900740786",
    "firebase_url": "https://timerewardsmobile.firebaseio.com",
    "project_id": "timerewardsmobile",
    "storage_bucket": "timerewardsmobile.appspot.com"
  },
  "client": [
    {
      "client_info": {
        "mobilesdk_app_id": "1:902900740786:android:b554235ddc0c910a",
        "android_client_info": {
          "package_name": "com.timerewards.tr"
        }
      },
      "oauth_client": [
        {
          "client_id": "902900740786-2upaauhd4tknhehm4nnoe345cgcja3jb.apps.googleusercontent.com",
          "client_type": 3
        }
      ],
      "api_key": [
        {
          "current_key": "AIzaSyDGUO0tLCp56dfiLR2_MZqAiGuD-6HyP48"
        }
      ],
      "services": {
        "analytics_service": {
          "status": 1
        },
        "appinvite_service": {
          "status": 1,
          "other_platform_oauth_client": []
        },
        "ads_service": {
          "status": 2
        }
      }
    }
  ],
  "configuration_version": "1"
}